0.609553 819 2
0.608006 745 3
0.567782 513 4
0.527751 364 5
0.489074 253 6
0.448076 178 7
0.40379 134 8
0.359698 98 9
0.316767 67 10
0.275189 50 11
0.240959 35 12
0.204409 24 13
0.168439 15 14
0.14504 7 15
0.12164 3 16
0.0997873 1 17
0.0800619 0 18
0.0643976 0 19
0.0541481 0 20
0.0446722 0 21
0.0377103 0 22
0.033069 0 23
0.0284278 0 24
0.0251402 0 25
0.0228196 0 26
0.0204989 0 27
0.0181783 0 28
0.0168246 0 29
0.0152775 0 30
0.0139238 0 31
0.013537 0 32
0.0125701 0 33
0.0116032 0 34
0.0102495 0 35
0.00850899 0 36
0.00754206 0 37
0.00599497 0 38
0.00522143 0 40
0.00444788 0 41
0.00406111 0 42
0.00328757 0 43
0.00290079 0 44
0.00251402 0 45
0.00212725 0 47
0.00154709 0 48
0.00116032 0 49
0.000966931 0 50
0.000580159 0 52
0.000386772 0 53
0.000193386 0 54
0 0 1.79769e+308
